{
    "COMMON" : {
        "SEARCH" : "Search",
        "CATEGORY" : "Category",
        "COLORS" : "Colors",
        "SIZE" : "Size",
        "EDITORS_CHOICE" : "Editors choice",
        "IMAGE_TYPE" : "Type",
        "RESOLUTION" : "Resolution",
        "LANG" : "Language",
        "ORDER" : "Order",
        "ORIENTATION" : "Orientation",
        "ALL" : "All",
        "YES" : "Yes",
        "NO" : "No"
    },
    "COLORS" : {
        "GRAYSCALE" : "Grayscale",
        "TRANSPARENT" : "Transparent",
        "RED" : "Red",
        "ORANGE" : "Orange",
        "YELLOW" : "Yellow",
        "GREEN" : "Green",
        "TURQUOISE" : "Turquoise",
        "BLUE" : "Blue",
        "LILAC" : "Lilac",
        "PINK" : "Pink",
        "WHITE" : "White",
        "GRAY" : "Gray",
        "BLACK" : "Black",
        "BROWN" : "Brown"
    },
    "IMAGETYPE" : {
        "PHOTO" : "Photo",
        "ILLUSTRATION" : "Illustration",
        "VECTOR" : "Vector"
    },
    "ORIENTATION" : {
        "HORIZONTAL" : "Horizontal",
        "VERTICAL" : "Vertical"
    },
    "CATEGORY" : {
        "FASHION" : "Fashion",
        "NATURE" : "Nature",
        "BACKGROUNDS" : "Backgrounds",
        "SCIENCE" : "Science",
        "EDUCATION" : "Education",
        "PEOPLE" : "People",
        "FEELINGS" : "Feelings",
        "RELIGION" : "Religion",
        "HEALTH" : "Health",
        "PLACES" : "Places",
        "ANIMALS" : "Animals",
        "INDUSTRY" : "Industry",
        "FOOD" : "Food",
        "COMPUTER" : "Computer",
        "SPORTS" : "Sports",
        "TRANSPORTATION" : "Transportation",
        "TRAVEL" : "Travel",
        "BUILDINGS" : "Buildings",
        "BUSINESS" : "Business",
        "MUSIC" : "Music"
    },
    "ORDER" : {
        "POPULAR" : "Popular",
        "LATEST" : "Latest"
    },
    "LANG" : {
        "ENGLISH": "English",
        "DANISH": "Danish",
        "GERMAN": "German",
        "CZECH": "Czech",
        "SPANISH": "Spanish",
        "FRENCH": "French",
        "INDONESIAN": "Indonesian",
        "ITALIAN": "Italian",
        "HUNGARIAN": "Hungarian",
        "DUTCH": "Dutch",
        "NORWEGIAN": "Norwegian",
        "POLISH": "Polish",
        "PORTUGUESE": "Portuguese",
        "ROMANIAN": "Romanian",
        "SLOVAK": "Slovak",
        "FINNISH": "Finnish",
        "SWEDISH": "Swedish",
        "TURKISH": "Turkish",
        "VIETNAMESE": "Vietnamese",
        "THAI": "Thai",
        "BULGARIAN": "Bulgarian",
        "RUSSIAN": "Russian",
        "GREEK": "Greek",
        "JAPANESE": "Japanese",
        "KOREAN": "Korean"
    }
}